Voltage,V 	 Current,A
-1.00000000000000	-0.00658090000000
-0.95918000000000	-0.00596570000000
-0.91837000000000	-0.00534290000000
-0.87755000000000	-0.00471480000000
-0.83673000000000	-0.00411917000000
-0.79592000000000	-0.00354264000000
-0.75510100000000	-0.00299073000000
-0.71429000000000	-0.00247225000000
-0.67347100000000	-0.00199369000000
-0.63265100000000	-0.00156722000000
-0.59184100000000	-0.00120084000000
-0.55102000000000	-0.00090172000000
-0.51020000000000	-0.00066607000000
-0.46939000000000	-0.00048394900000
-0.42857000000000	-0.00034767600000
-0.38776000000000	-0.00024445000000
-0.34694000000000	-0.00016825500000
-0.30612100000000	-0.00011423900000
-0.26531000000000	-0.00007782200000
-0.22449000000000	-0.00005527200000
-0.18366800000000	-0.00004018690000
-0.14286300000000	-0.00002948090000
-0.10203600000000	-0.00002068730000
-0.06121800000000	-0.00001219830000
-0.02040900000000	-0.00000407479000
0.02041100000000	0.00000408307000
0.06122200000000	0.00001220830000
0.10204100000000	0.00002015890000
0.14286100000000	0.00002868840000
0.18367300000000	0.00003750050000
0.22448900000000	0.00004638260000
0.26530300000000	0.00005671680000
0.30611900000000	0.00006695950000
0.34693300000000	0.00007931040000
0.38775700000000	0.00009391590000
0.42856800000000	0.00011940400000
0.46939600000000	0.00030151500000
0.51016600000000	0.00143057000000
0.55102400000000	0.00168410000000
0.59184100000000	0.00201574000000
0.63259400000000	0.00290095000000
0.67345800000000	0.00436234000000
0.71429800000000	0.00476235000000
0.75519100000000	0.00292542000000
0.79592100000000	0.00001326390000
0.83672900000000	0.00001458940000
0.87755100000000	0.00001612020000
0.91837200000000	0.00001762930000
0.95918000000000	0.00001927390000
1.00000500000000	0.00002091520000
0.99999900000000	0.00002125630000
0.95918200000000	0.00001977680000
0.91836900000000	0.00001845770000
0.87755100000000	0.00001715740000
0.83673300000000	0.00001578640000
0.79592000000000	0.00001444400000
0.75509900000000	0.00001327900000
0.71429100000000	0.00001205480000
0.67346900000000	0.00001087670000
0.63265400000000	0.00000984980000
0.59183900000000	0.00000883480000
0.55102300000000	0.00000794150000
0.51020000000000	0.00000701050000
0.46939200000000	0.00000615930000
0.42857100000000	0.00000541600000
0.38775800000000	0.00000469680000
0.34694100000000	0.00000400593000
0.30611900000000	0.00000335908000
0.26530900000000	0.00000277271000
0.22448900000000	0.00000225778000
0.18367200000000	0.00000175711000
0.14286200000000	0.00000133362000
0.10204000000000	0.00000092033000
0.06122100000000	0.00000054109000
0.02040900000000	0.00000018444000
-0.02041000000000	-0.00000021759700
-0.06121900000000	-0.00000077744000
-0.10204000000000	-0.00000177924000
-0.14285900000000	-0.00000383810000
-0.18367000000000	-0.00000824775000
-0.22448700000000	-0.00001711150000
-0.26530000000000	-0.00065082200000
-0.30612100000000	-0.00078386300000
-0.34694200000000	-0.00090120100000
-0.38775900000000	-0.00101361500000
-0.42857200000000	-0.00115041000000
-0.46938800000000	-0.00130677000000
-0.51019500000000	-0.00166661000000
-0.55102000000000	-0.00199212000000
-0.59184300000000	-0.00219166000000
-0.63266400000000	-0.00243619000000
-0.67347700000000	-0.00264760000000
-0.71429300000000	-0.00308058000000
-0.75511100000000	-0.00346626000000
-0.79592400000000	-0.00398177000000
-0.83673200000000	-0.00456294000000
-0.87755000000000	-0.00512991000000
-0.91837200000000	-0.00573423000000
-0.95918000000000	-0.00632241000000
-1.00000100000000	-0.00692026000000
