Model,MSO44
Firmware Version,CF:91.1CT FV:1.30.1.8359
,
Waveform Type,ANALOG
Point Format,Y
Horizontal Units,"s"
Horizontal Scale,2E-05
Horizontal Delay,0
Sample Interval,2E-07
Record Length,1000
Gating,0.0% to 100.0%
Probe Attenuation,1X
Vertical Units,"V"
Vertical Offset,0
Vertical Scale,0.002
Vertical Position,0.24
,
,
,
Label,""
TIME,CH1
-0.0001298,0.001109687
-0.0001296,0.001077812
-0.0001294,0.0007696875
-0.0001292,0.00085
-0.000129,0.0009193749
-0.0001288,0.0009493749
-0.0001286,0.001164375
-0.0001284,0.001066875
-0.0001282,0.000843125
-0.000128,0.0007078124
-0.0001278,0.001186562
-0.0001276,0.0009087499
-0.0001274,0.000846875
-0.0001272,0.0009259375
-0.000127,0.001110313
-0.0001268,0.00070625
-0.0001266,0.0008796874
-0.0001264,0.0009121874
-0.0001262,0.000830625
-0.000126,0.001063125
-0.0001258,0.0009975
-0.0001256,0.000960625
-0.0001254,0.0009862499
-0.0001252,0.001284688
-0.000125,0.001011875
-0.0001248,0.001171875
-0.0001246,0.0008334375
-0.0001244,0.0008003124
-0.0001242,0.0008206249
-0.000124,0.001015625
-0.0001238,0.001142812
-0.0001236,0.0008103125
-0.0001234,0.0009503125
-0.0001232,0.0007734375
-0.000123,0.0009734375
-0.0001228,0.0007640625
-0.0001226,0.00088
-0.0001224,0.0008390624
-0.0001222,0.001156562
-0.000122,0.001190625
-0.0001218,0.00136
-0.0001216,0.000753125
-0.0001214,0.0009528124
-0.0001212,0.0009765624
-0.000121,0.0008028125
-0.0001208,0.0008440625
-0.0001206,0.000734375
-0.0001204,0.00065125
-0.0001202,0.001052812
-0.00012,0.001025937
-0.0001198,0.0009378124
-0.0001196,0.0009121874
-0.0001194,0.0009918751
-0.0001192,0.001150625
-0.000119,0.0008937499
-0.0001188,0.00076875
-0.0001186,0.0009015625
-0.0001184,0.000739375
-0.0001182,0.0008443749
-0.000118,0.001036562
-0.0001178,0.001008125
-0.0001176,0.001236562
-0.0001174,0.0009493749
-0.0001172,0.001143438
-0.000117,0.0008971874
-0.0001168,0.001156875
-0.0001166,0.001129375
-0.0001164,0.000764375
-0.0001162,0.0009384375
-0.000116,0.0008765625
-0.0001158,0.001170625
-0.0001156,0.001079687
-0.0001154,0.0007084375
-0.0001152,0.000925625
-0.000115,0.0008421875
-0.0001148,0.00094375
-0.0001146,0.0006
-0.0001144,0.0010175
-0.0001142,0.0009534375
-0.000114,0.0009893749
-0.0001138,0.000990625
-0.0001136,0.001238125
-0.0001134,0.00109375
-0.0001132,0.0008206249
-0.000113,0.001133125
-0.0001128,0.0008356249
-0.0001126,0.0007053125
-0.0001124,0.0008896875
-0.0001122,0.001312187
-0.000112,0.00098375
-0.0001118,0.001033437
-0.0001116,0.0005265625
-0.0001114,0.001032187
-0.0001112,0.0009396874
-0.000111,0.001360313
-0.0001108,0.0005696875
-0.0001106,0.000695
-0.0001104,0.0009131249
-0.0001102,0.0009912499
-0.00011,0.0009896874
-0.0001098,0.0007846875
-0.0001096,0.00105
-0.0001094,0.0007196875
-0.0001092,0.000909375
-0.000109,0.00071875
-0.0001088,0.000911875
-0.0001086,0.0008240624
-0.0001084,0.00088625
-0.0001082,0.0005759375
-0.000108,0.000634375
-0.0001078,0.000968125
-0.0001076,0.0008828125
-0.0001074,0.0007624999
-0.0001072,0.00093125
-0.000107,0.001025313
-0.0001068,0.000641875
-0.0001066,0.0007303125
-0.0001064,0.00075375
-0.0001062,0.001085
-0.000106,0.00057
-0.0001058,0.0007046875
-0.0001056,0.000816875
-0.0001054,0.001139062
-0.0001052,0.000825625
-0.000105,0.0009087499
-0.0001048,0.001379375
-0.0001046,0.0009740624
-0.0001044,0.000778125
-0.0001042,0.001055313
-0.000104,0.0011525
-0.0001038,0.000690625
-0.0001036,0.0008396875
-0.0001034,0.0006078125
-0.0001032,0.000831875
-0.000103,0.000833125
-0.0001028,0.000861875
-0.0001026,0.00096625
-0.0001024,0.000945625
-0.0001022,0.000615625
-0.000102,0.00103375
-0.0001018,0.001014688
-0.0001016,0.000834375
-0.0001014,0.0005125
-0.0001012,0.0009240625
-0.000101,0.000819375
-0.0001008,0.0009493749
-0.0001006,0.0008325
-0.0001004,0.001183437
-0.0001002,0.001059063
-0.0001,0.001175
-9.98E-05,0.0019125
-9.96E-05,0.001156562
-9.94E-05,0.0023375
-9.92E-05,0.002494687
-9.9E-05,0.003000625
-9.88E-05,0.003171562
-9.86E-05,0.003210625
-9.84E-05,0.00352
-9.82E-05,0.00309875
-9.8E-05,0.003271563
-9.78E-05,0.003457813
-9.76E-05,0.0036875
-9.74E-05,0.003324063
-9.72E-05,0.003930313
-9.7E-05,0.003553125
-9.68E-05,0.003420312
-9.66E-05,0.003840937
-9.64E-05,0.003890938
-9.62E-05,0.003254375
-9.6E-05,0.003691562
-9.58E-05,0.00398
-9.56E-05,0.003677187
-9.54E-05,0.003709062
-9.52E-05,0.003604687
-9.5E-05,0.003412188
-9.48E-05,0.003773125
-9.46E-05,0.003692187
-9.44E-05,0.003937813
-9.42E-05,0.003863438
-9.4E-05,0.00388875
-9.38E-05,0.003962188
-9.36E-05,0.003954688
-9.34E-05,0.003930313
-9.32E-05,0.003594062
-9.3E-05,0.004132187
-9.28E-05,0.004374375
-9.26E-05,0.003984062
-9.24E-05,0.003898438
-9.22E-05,0.004308125
-9.2E-05,0.004057813
-9.18E-05,0.004085625
-9.16E-05,0.003983438
-9.14E-05,0.004198438
-9.12E-05,0.0038725
-9.1E-05,0.0043125
-9.08E-05,0.0039475
-9.06E-05,0.00433125
-9.04E-05,0.004203125
-9.02E-05,0.004302812
-9E-05,0.004173438
-8.98E-05,0.00428375
-8.96E-05,0.004245
-8.94E-05,0.004278437
-8.92E-05,0.004431562
-8.9E-05,0.004275313
-8.88E-05,0.004485937
-8.86E-05,0.00438375
-8.84E-05,0.00457125
-8.82E-05,0.004524062
-8.8E-05,0.004326875
-8.78E-05,0.004546563
-8.76E-05,0.004371563
-8.74E-05,0.0048125
-8.72E-05,0.004344375
-8.7E-05,0.004485625
-8.68E-05,0.004447187
-8.66E-05,0.004230313
-8.64E-05,0.004655
-8.62E-05,0.004319375
-8.6E-05,0.004455625
-8.58E-05,0.004547813
-8.56E-05,0.0046
-8.54E-05,0.004775312
-8.52E-05,0.00467375
-8.5E-05,0.004439062
-8.48E-05,0.004642813
-8.46E-05,0.004458438
-8.44E-05,0.00476
-8.42E-05,0.004338125
-8.4E-05,0.0047125
-8.38E-05,0.00472125
-8.36E-05,0.00448
-8.34E-05,0.00499625
-8.32E-05,0.004778437
-8.3E-05,0.004706875
-8.28E-05,0.004427813
-8.26E-05,0.004924688
-8.24E-05,0.004695313
-8.22E-05,0.004309062
-8.2E-05,0.004627187
-8.18E-05,0.004743437
-8.16E-05,0.005009375
-8.14E-05,0.004465
-8.12E-05,0.004763125
-8.1E-05,0.004893125
-8.08E-05,0.004627813
-8.06E-05,0.004530937
-8.04E-05,0.0046375
-8.02E-05,0.004475
-8E-05,0.004884062
-7.98E-05,0.004580937
-7.96E-05,0.004844687
-7.94E-05,0.004625625
-7.92E-05,0.004432187
-7.9E-05,0.00478375
-7.88E-05,0.00484375
-7.86E-05,0.004202188
-7.84E-05,0.004793438
-7.82E-05,0.004382188
-7.8E-05,0.004958437
-7.78E-05,0.004736875
-7.76E-05,0.004652813
-7.74E-05,0.005041875
-7.72E-05,0.004540625
-7.7E-05,0.004720625
-7.68E-05,0.00506
-7.66E-05,0.004769063
-7.64E-05,0.004440938
-7.62E-05,0.004818125
-7.6E-05,0.004945313
-7.58E-05,0.004664375
-7.56E-05,0.005118438
-7.54E-05,0.004649375
-7.52E-05,0.00483375
-7.5E-05,0.005089062
-7.48E-05,0.004875937
-7.46E-05,0.004573125
-7.44E-05,0.004761875
-7.42E-05,0.004877187
-7.4E-05,0.005070625
-7.38E-05,0.004741563
-7.36E-05,0.00507125
-7.34E-05,0.005001875
-7.32E-05,0.004845312
-7.3E-05,0.004853125
-7.28E-05,0.004909375
-7.26E-05,0.005043125
-7.24E-05,0.0049025
-7.22E-05,0.005011562
-7.2E-05,0.005196563
-7.18E-05,0.004694688
-7.16E-05,0.00502625
-7.14E-05,0.005193125
-7.12E-05,0.004988438
-7.1E-05,0.0046175
-7.08E-05,0.004942188
-7.06E-05,0.004799687
-7.04E-05,0.004992812
-7.02E-05,0.00504125
-7E-05,0.004968437
-6.98E-05,0.00462625
-6.96E-05,0.005101875
-6.94E-05,0.004730313
-6.92E-05,0.004977188
-6.9E-05,0.00519375
-6.88E-05,0.00507625
-6.86E-05,0.004579687
-6.84E-05,0.005066562
-6.82E-05,0.004848125
-6.8E-05,0.00489125
-6.78E-05,0.00515625
-6.76E-05,0.00462
-6.74E-05,0.004644062
-6.72E-05,0.0053175
-6.7E-05,0.005419062
-6.68E-05,0.005119687
-6.66E-05,0.005296562
-6.64E-05,0.005258437
-6.62E-05,0.005040938
-6.6E-05,0.00532125
-6.58E-05,0.00500375
-6.56E-05,0.00494
-6.54E-05,0.004965937
-6.52E-05,0.005435
-6.5E-05,0.005037188
-6.48E-05,0.005252813
-6.46E-05,0.005199063
-6.44E-05,0.00519
-6.42E-05,0.005401562
-6.4E-05,0.005025312
-6.38E-05,0.005157812
-6.36E-05,0.004804375
-6.34E-05,0.00526375
-6.32E-05,0.004969375
-6.3E-05,0.005100938
-6.28E-05,0.005093125
-6.26E-05,0.005253437
-6.24E-05,0.005068438
-6.22E-05,0.004935313
-6.2E-05,0.005095937
-6.18E-05,0.005035312
-6.16E-05,0.005274687
-6.14E-05,0.0055625
-6.12E-05,0.005210937
-6.1E-05,0.005099375
-6.08E-05,0.005094375
-6.06E-05,0.005122188
-6.04E-05,0.005254062
-6.02E-05,0.005167813
-6E-05,0.005040938
-5.98E-05,0.004950625
-5.96E-05,0.005281875
-5.94E-05,0.005254375
-5.92E-05,0.004785312
-5.9E-05,0.005227813
-5.88E-05,0.00519125
-5.86E-05,0.0051625
-5.84E-05,0.005300312
-5.82E-05,0.00511625
-5.8E-05,0.00526125
-5.78E-05,0.005065938
-5.76E-05,0.005281875
-5.74E-05,0.005212812
-5.72E-05,0.005345312
-5.7E-05,0.005350312
-5.68E-05,0.004803437
-5.66E-05,0.0051125
-5.64E-05,0.005235
-5.62E-05,0.004684062
-5.6E-05,0.0050525
-5.58E-05,0.00479625
-5.56E-05,0.005064375
-5.54E-05,0.005609375
-5.52E-05,0.005056562
-5.5E-05,0.005037813
-5.48E-05,0.004940625
-5.46E-05,0.005252813
-5.44E-05,0.005200625
-5.42E-05,0.004920938
-5.4E-05,0.005199688
-5.38E-05,0.004937812
-5.36E-05,0.005114062
-5.34E-05,0.005230938
-5.32E-05,0.005315
-5.3E-05,0.00540875
-5.28E-05,0.005427812
-5.26E-05,0.005426562
-5.24E-05,0.005104375
-5.22E-05,0.005229687
-5.2E-05,0.005159375
-5.18E-05,0.00521875
-5.16E-05,0.005304062
-5.14E-05,0.005360625
-5.12E-05,0.005386563
-5.1E-05,0.005116875
-5.08E-05,0.005212812
-5.06E-05,0.005478125
-5.04E-05,0.005460938
-5.02E-05,0.005330313
-5E-05,0.005371562
-4.98E-05,0.005180937
-4.96E-05,0.005661875
-4.94E-05,0.005270937
-4.92E-05,0.005165937
-4.9E-05,0.004981875
-4.88E-05,0.005194375
-4.86E-05,0.005460625
-4.84E-05,0.004834062
-4.82E-05,0.005304062
-4.8E-05,0.004832813
-4.78E-05,0.0055675
-4.76E-05,0.005320625
-4.74E-05,0.0051075
-4.72E-05,0.005247812
-4.7E-05,0.005506563
-4.68E-05,0.005274063
-4.66E-05,0.0054625
-4.64E-05,0.005286875
-4.62E-05,0.005310312
-4.6E-05,0.005420937
-4.58E-05,0.005194375
-4.56E-05,0.005537187
-4.54E-05,0.005360312
-4.52E-05,0.004878125
-4.5E-05,0.005126875
-4.48E-05,0.00554625
-4.46E-05,0.005202187
-4.44E-05,0.005345625
-4.42E-05,0.005257187
-4.4E-05,0.005352187
-4.38E-05,0.005565
-4.36E-05,0.005245
-4.34E-05,0.00527
-4.32E-05,0.005557812
-4.3E-05,0.005312188
-4.28E-05,0.00520625
-4.26E-05,0.005120312
-4.24E-05,0.0055525
-4.22E-05,0.005480312
-4.2E-05,0.005212187
-4.18E-05,0.005318437
-4.16E-05,0.005112187
-4.14E-05,0.005377187
-4.12E-05,0.005409062
-4.1E-05,0.005109375
-4.08E-05,0.005398125
-4.06E-05,0.00515125
-4.04E-05,0.0054375
-4.02E-05,0.005284375
-4E-05,0.005534063
-3.98E-05,0.005326875
-3.96E-05,0.005209688
-3.94E-05,0.005536875
-3.92E-05,0.005115313
-3.9E-05,0.00505375
-3.88E-05,0.005664062
-3.86E-05,0.00552875
-3.84E-05,0.005487812
-3.82E-05,0.005485937
-3.8E-05,0.00546625
-3.78E-05,0.005711562
-3.76E-05,0.005532812
-3.74E-05,0.005575312
-3.72E-05,0.005460625
-3.7E-05,0.005401875
-3.68E-05,0.005533437
-3.66E-05,0.005381875
-3.64E-05,0.005433125
-3.62E-05,0.005385312
-3.6E-05,0.005495938
-3.58E-05,0.005534688
-3.56E-05,0.005504375
-3.54E-05,0.005421563
-3.52E-05,0.005210625
-3.5E-05,0.005406875
-3.48E-05,0.005545
-3.46E-05,0.005400625
-3.44E-05,0.005750937
-3.42E-05,0.005193437
-3.4E-05,0.005310937
-3.38E-05,0.005696563
-3.36E-05,0.005227188
-3.34E-05,0.005236562
-3.32E-05,0.005305313
-3.3E-05,0.005227813
-3.28E-05,0.005422812
-3.26E-05,0.005503437
-3.24E-05,0.005380312
-3.22E-05,0.005337188
-3.2E-05,0.005591562
-3.18E-05,0.00531875
-3.16E-05,0.005274375
-3.14E-05,0.005378437
-3.12E-05,0.005675313
-3.1E-05,0.005205625
-3.08E-05,0.005295625
-3.06E-05,0.005540312
-3.04E-05,0.005373437
-3.02E-05,0.005826563
-3E-05,0.0054575
-2.98E-05,0.005554062
-2.96E-05,0.005248125
-2.94E-05,0.005591562
-2.92E-05,0.005275312
-2.9E-05,0.00563625
-2.88E-05,0.005470938
-2.86E-05,0.005602812
-2.84E-05,0.005195
-2.82E-05,0.005492812
-2.8E-05,0.005480312
-2.78E-05,0.0054925
-2.76E-05,0.005468437
-2.74E-05,0.005573438
-2.72E-05,0.005587188
-2.7E-05,0.00560875
-2.68E-05,0.00532625
-2.66E-05,0.005435313
-2.64E-05,0.005491875
-2.62E-05,0.005638437
-2.6E-05,0.005698437
-2.58E-05,0.005103125
-2.56E-05,0.005395625
-2.54E-05,0.005445312
-2.52E-05,0.0056075
-2.5E-05,0.005581562
-2.48E-05,0.005325938
-2.46E-05,0.005505
-2.44E-05,0.00548375
-2.42E-05,0.005713437
-2.4E-05,0.005825312
-2.38E-05,0.005465625
-2.36E-05,0.005159375
-2.34E-05,0.005408437
-2.32E-05,0.005744062
-2.3E-05,0.005378437
-2.28E-05,0.00544875
-2.26E-05,0.005698437
-2.24E-05,0.00544125
-2.22E-05,0.005435938
-2.2E-05,0.005653437
-2.18E-05,0.005656562
-2.16E-05,0.00552
-2.14E-05,0.005723437
-2.12E-05,0.00565
-2.1E-05,0.00529625
-2.08E-05,0.005449375
-2.06E-05,0.005523125
-2.04E-05,0.005193125
-2.02E-05,0.005384687
-2E-05,0.005835937
-1.98E-05,0.005914375
-1.96E-05,0.005431562
-1.94E-05,0.005570937
-1.92E-05,0.005254375
-1.9E-05,0.005519687
-1.88E-05,0.005262813
-1.86E-05,0.005672812
-1.84E-05,0.005525625
-1.82E-05,0.005532187
-1.8E-05,0.005442813
-1.78E-05,0.005475312
-1.76E-05,0.00567625
-1.74E-05,0.005531875
-1.72E-05,0.005554062
-1.7E-05,0.005382813
-1.68E-05,0.005823438
-1.66E-05,0.005580937
-1.64E-05,0.005601875
-1.62E-05,0.00526375
-1.6E-05,0.005525937
-1.58E-05,0.005340625
-1.56E-05,0.005865625
-1.54E-05,0.005508125
-1.52E-05,0.005352187
-1.5E-05,0.005565625
-1.48E-05,0.005448125
-1.46E-05,0.005489375
-1.44E-05,0.005775625
-1.42E-05,0.005252188
-1.4E-05,0.00552375
-1.38E-05,0.0056975
-1.36E-05,0.005824063
-1.34E-05,0.005734687
-1.32E-05,0.005821875
-1.3E-05,0.005624375
-1.28E-05,0.005477813
-1.26E-05,0.005675313
-1.24E-05,0.005685312
-1.22E-05,0.005670937
-1.2E-05,0.005357813
-1.18E-05,0.00545
-1.16E-05,0.005603125
-1.14E-05,0.005328125
-1.12E-05,0.00592625
-1.1E-05,0.005060937
-1.08E-05,0.005661563
-1.06E-05,0.005388125
-1.04E-05,0.005681562
-1.02E-05,0.005595625
-9.99999999999999E-06,0.00576625
-9.79999999999999E-06,0.005530625
-9.59999999999999E-06,0.005391875
-9.39999999999998E-06,0.005699062
-9.19999999999999E-06,0.005566563
-8.99999999999999E-06,0.005484375
-8.79999999999998E-06,0.005478438
-8.59999999999999E-06,0.005615313
-8.39999999999999E-06,0.005762812
-8.19999999999998E-06,0.005675625
-7.99999999999999E-06,0.005859687
-7.79999999999999E-06,0.005576875
-7.59999999999999E-06,0.005490625
-7.39999999999999E-06,0.005213125
-7.19999999999999E-06,0.005179375
-6.99999999999998E-06,0.005463125
-6.8E-06,0.005685312
-6.6E-06,0.0053025
-6.39999999999999E-06,0.005683437
-6.19999999999999E-06,0.00579875
-5.99999999999998E-06,0.005431875
-5.79999999999998E-06,0.005418438
-5.6E-06,0.00570375
-5.4E-06,0.005426875
-5.19999999999999E-06,0.005494687
-4.99999999999999E-06,0.0056775
-4.79999999999998E-06,0.005777187
-4.59999999999998E-06,0.005822812
-4.4E-06,0.005485
-4.19999999999999E-06,0.005704687
-3.99999999999999E-06,0.0057025
-3.79999999999998E-06,0.00571375
-3.59999999999998E-06,0.005597813
-3.4E-06,0.005651562
-3.2E-06,0.005529375
-2.99999999999999E-06,0.005461875
-2.79999999999999E-06,0.005847813
-2.59999999999998E-06,0.005669687
-2.39999999999998E-06,0.005805625
-2.2E-06,0.005592812
-1.99999999999999E-06,0.005833437
-1.79999999999999E-06,0.005692187
-1.59999999999998E-06,0.005718437
-1.39999999999998E-06,0.005726875
-1.2E-06,0.005549687
-9.99999999999997E-07,0.005545937
-7.99999999999992E-07,0.00535625
-5.99999999999987E-07,0.005511562
-3.99999999999983E-07,0.005864375
-1.99999999999978E-07,0.005543437
0,0.005645625
2.00000000000005E-07,0.003804375
4.0000000000001E-07,0.005067812
6.00000000000015E-07,0.004238125
8.00000000000019E-07,0.004072812
9.99999999999997E-07,0.004359062
1.2E-06,0.004160937
1.40000000000001E-06,0.003957813
1.60000000000001E-06,0.00407
1.80000000000002E-06,0.003886562
2.00000000000002E-06,0.003860937
2.2E-06,0.003907812
2.4E-06,0.003910625
2.60000000000001E-06,0.004000313
2.80000000000001E-06,0.003778438
3.00000000000002E-06,0.003863438
3.20000000000002E-06,0.003921562
3.4E-06,0.003904062
3.60000000000001E-06,0.00392
3.80000000000001E-06,0.00369375
4.00000000000002E-06,0.0040975
4.20000000000002E-06,0.00407875
4.4E-06,0.004039688
4.6E-06,0.004051875
4.80000000000001E-06,0.003843125
5.00000000000001E-06,0.003934375
5.20000000000002E-06,0.003944688
5.40000000000002E-06,0.0039
5.6E-06,0.003953125
5.80000000000001E-06,0.00367875
6.00000000000001E-06,0.003745
6.20000000000002E-06,0.003750938
6.40000000000002E-06,0.004069062
6.6E-06,0.003805312
6.8E-06,0.0037875
7.00000000000001E-06,0.003975625
7.20000000000001E-06,0.004112187
7.40000000000002E-06,0.003892187
7.60000000000002E-06,0.00370125
7.8E-06,0.003798125
8E-06,0.004015313
8.20000000000001E-06,0.003749688
8.40000000000001E-06,0.003984687
8.60000000000002E-06,0.003854375
8.8E-06,0.0034525
9E-06,0.003678437
9.20000000000001E-06,0.003360312
9.40000000000001E-06,0.003854375
9.60000000000002E-06,0.003545
9.80000000000002E-06,0.003735938
1E-05,0.003490937
1.02E-05,0.003890312
1.04E-05,0.003722813
1.06E-05,0.00347625
1.08E-05,0.004202812
1.1E-05,0.003595938
1.12E-05,0.003759375
1.14E-05,0.003891563
1.16E-05,0.004048437
1.18E-05,0.003764688
1.2E-05,0.003675938
1.22E-05,0.00352875
1.24E-05,0.003617187
1.26E-05,0.003654375
1.28E-05,0.003480937
1.3E-05,0.00351
1.32E-05,0.003979688
1.34E-05,0.003564375
1.36E-05,0.003921562
1.38E-05,0.00329125
1.4E-05,0.003757813
1.42E-05,0.003705625
1.44E-05,0.003645937
1.46E-05,0.003817813
1.48E-05,0.003515937
1.5E-05,0.003771875
1.52E-05,0.003665313
1.54E-05,0.003490625
1.56E-05,0.0037625
1.58E-05,0.003892812
1.6E-05,0.003402187
1.62E-05,0.003589375
1.64E-05,0.003735
1.66E-05,0.003369375
1.68E-05,0.00393625
1.7E-05,0.003309062
1.72E-05,0.0036575
1.74E-05,0.003745937
1.76E-05,0.003395937
1.78E-05,0.003664375
1.8E-05,0.00373
1.82E-05,0.003540937
1.84E-05,0.003771563
1.86E-05,0.003520625
1.88E-05,0.003515
1.9E-05,0.003560937
1.92E-05,0.003846875
1.94E-05,0.003815
1.96E-05,0.003385938
1.98E-05,0.003467813
2E-05,0.003575625
2.02E-05,0.003588438
2.04E-05,0.003622187
2.06E-05,0.003808437
2.08E-05,0.00344125
2.1E-05,0.00357125
2.12E-05,0.003419688
2.14E-05,0.00329875
2.16E-05,0.003322812
2.18E-05,0.003504063
2.2E-05,0.003294687
2.22E-05,0.003651875
2.24E-05,0.003614062
2.26E-05,0.00341375
2.28E-05,0.003612813
2.3E-05,0.003353437
2.32E-05,0.0036125
2.34E-05,0.003732188
2.36E-05,0.0032675
2.38E-05,0.003673438
2.4E-05,0.003558125
2.42E-05,0.003475625
2.44E-05,0.0035425
2.46E-05,0.00365125
2.48E-05,0.003397187
2.5E-05,0.003369062
2.52E-05,0.003550312
2.54E-05,0.00358375
2.56E-05,0.003732813
2.58E-05,0.003406875
2.6E-05,0.003238437
2.62E-05,0.00355
2.64E-05,0.00318125
2.66E-05,0.003610937
2.68E-05,0.003341563
2.7E-05,0.00359375
2.72E-05,0.003255625
2.74E-05,0.003359688
2.76E-05,0.0036075
2.78E-05,0.003410625
2.8E-05,0.003342812
2.82E-05,0.003415938
2.84E-05,0.003204687
2.86E-05,0.003239688
2.88E-05,0.003652188
2.9E-05,0.003232188
2.92E-05,0.00322
2.94E-05,0.003286875
2.96E-05,0.003586562
2.98E-05,0.003502813
3E-05,0.00348875
3.02E-05,0.003409063
3.04E-05,0.003317188
3.06E-05,0.003189062
3.08E-05,0.003423125
3.1E-05,0.003461563
3.12E-05,0.003521875
3.14E-05,0.003633125
3.16E-05,0.003442812
3.18E-05,0.003542188
3.2E-05,0.003277812
3.22E-05,0.00356625
3.24E-05,0.003444375
3.26E-05,0.003123438
3.28E-05,0.003215312
3.3E-05,0.003293437
3.32E-05,0.003564687
3.34E-05,0.00338
3.36E-05,0.003480937
3.38E-05,0.003204375
3.4E-05,0.003203437
3.42E-05,0.003608125
3.44E-05,0.003246875
3.46E-05,0.003253125
3.48E-05,0.003600937
3.5E-05,0.003359688
3.52E-05,0.003461563
3.54E-05,0.003343125
3.56E-05,0.003203437
3.58E-05,0.003244375
3.6E-05,0.003342187
3.62E-05,0.003535938
3.64E-05,0.003209375
3.66E-05,0.003075
3.68E-05,0.00329
3.7E-05,0.002980313
3.72E-05,0.00340375
3.74E-05,0.003225
3.76E-05,0.003308438
3.78E-05,0.003559375
3.8E-05,0.003415
3.82E-05,0.00302375
3.84E-05,0.003381562
3.86E-05,0.003295312
3.88E-05,0.003638437
3.9E-05,0.003347188
3.92E-05,0.003228125
3.94E-05,0.003255625
3.96E-05,0.003580938
3.98E-05,0.0031225
4E-05,0.00328
4.02E-05,0.003234375
4.04E-05,0.003408437
4.06E-05,0.003054375
4.08E-05,0.003284062
4.1E-05,0.003375
4.12E-05,0.00346625
4.14E-05,0.003311563
4.16E-05,0.003112813
4.18E-05,0.00336
4.2E-05,0.003177187
4.22E-05,0.003380938
4.24E-05,0.003538125
4.26E-05,0.003275312
4.28E-05,0.003415
4.3E-05,0.003461875
4.32E-05,0.003454063
4.34E-05,0.003125625
4.36E-05,0.003114063
4.38E-05,0.003084375
4.4E-05,0.003305625
4.42E-05,0.003293125
4.44E-05,0.0028675
4.46E-05,0.003219687
4.48E-05,0.003377812
4.5E-05,0.003200625
4.52E-05,0.002662187
4.54E-05,0.003124062
4.56E-05,0.003124062
4.58E-05,0.003220313
4.6E-05,0.003323437
4.62E-05,0.00321875
4.64E-05,0.002984375
4.66E-05,0.003209375
4.68E-05,0.0033175
4.7E-05,0.003032187
4.72E-05,0.003161562
4.74E-05,0.003380313
4.76E-05,0.003200938
4.78E-05,0.003245
4.8E-05,0.003051875
4.82E-05,0.003080625
4.84E-05,0.003569687
4.86E-05,0.003209062
4.88E-05,0.003168125
4.9E-05,0.003320312
4.92E-05,0.0031925
4.94E-05,0.003085312
4.96E-05,0.00344
4.98E-05,0.003144375
5E-05,0.00301875
5.02E-05,0.003085625
5.04E-05,0.003147813
5.06E-05,0.002971563
5.08E-05,0.003154375
5.1E-05,0.002850625
5.12E-05,0.00326875
5.14E-05,0.002925938
5.16E-05,0.003231562
5.18E-05,0.003202813
5.2E-05,0.003153438
5.22E-05,0.003240625
5.24E-05,0.002985938
5.26E-05,0.003253438
5.28E-05,0.003205625
5.3E-05,0.003311875
5.32E-05,0.00336625
5.34E-05,0.003269375
5.36E-05,0.002909688
5.38E-05,0.003109375
5.4E-05,0.002934062
5.42E-05,0.003255937
5.44E-05,0.003045938
5.46E-05,0.003285625
5.48E-05,0.003019063
5.5E-05,0.003352188
5.52E-05,0.003094375
5.54E-05,0.003260625
5.56E-05,0.00300875
5.58E-05,0.002985625
5.6E-05,0.00306
5.62E-05,0.002939062
5.64E-05,0.003142187
5.66E-05,0.00318625
5.68E-05,0.003524688
5.7E-05,0.00295125
5.72E-05,0.003252188
5.74E-05,0.002914062
5.76E-05,0.002959375
5.78E-05,0.002865312
5.8E-05,0.002957813
5.82E-05,0.002800938
5.84E-05,0.003413437
5.86E-05,0.003265938
5.88E-05,0.003070313
5.9E-05,0.00321375
5.92E-05,0.0031575
5.94E-05,0.003349063
5.96E-05,0.003053125
5.98E-05,0.003027187
6E-05,0.003186875
6.02E-05,0.00282375
6.04E-05,0.003124688
6.06E-05,0.002934688
6.08E-05,0.003199063
6.1E-05,0.003179688
6.12E-05,0.002999688
6.14E-05,0.00307125
6.16E-05,0.003125
6.18E-05,0.003008438
6.2E-05,0.00329875
6.22E-05,0.002928437
6.24E-05,0.003372187
6.26E-05,0.003213125
6.28E-05,0.002833125
6.3E-05,0.003014375
6.32E-05,0.003100313
6.34E-05,0.003235
6.36E-05,0.003125937
6.38E-05,0.0029575
6.4E-05,0.003321562
6.42E-05,0.00314625
6.44E-05,0.002920937
6.46E-05,0.003184375
6.48E-05,0.003092812
6.5E-05,0.00332875
6.52E-05,0.003208125
6.54E-05,0.003275312
6.56E-05,0.003113437
6.58E-05,0.002875312
6.6E-05,0.002935625
6.62E-05,0.003215
6.64E-05,0.00297375
6.66E-05,0.002934375
6.68E-05,0.003235625
6.7E-05,0.002979687
6.72E-05,0.0031625
6.74E-05,0.002920313
6.76E-05,0.002930938
6.78E-05,0.003097187
6.8E-05,0.003010313
6.82E-05,0.003098438
6.84E-05,0.002839375
6.86E-05,0.0032275
6.88E-05,0.002933125
6.9E-05,0.002982188
6.92E-05,0.002904062
6.94E-05,0.003005625
6.96E-05,0.002921562
6.98E-05,0.0028625
7E-05,0.002412187
